*ERROR* 	2016/06/30 - 09:48:33: Property Address->address2 is empty at line 846 in file classes/ObjectModel.php
*ERROR* 	2016/06/30 - 09:48:40: Property Address->address2 is empty at line 846 in file classes/ObjectModel.php
*ERROR* 	2016/06/30 - 09:48:52: Property Address->address2 is empty at line 846 in file classes/ObjectModel.php
*ERROR* 	2016/06/30 - 09:52:13: Property Address->address2 is empty at line 846 in file classes/ObjectModel.php
